\relax 
\bibstyle{agufull08}
\citation{Bolin1983ch1,Cramer2001,Raupach2005,Prentice2007,Friedlingstein2014}
\citation{Raupach2005,Prentice2007}
\citation{Cramer2001,Friedlingstein2014}
\citation{Held2005}
\citation{Bolin1983ch1,Raupach2005,Held2005,Held2014}
\@writefile{toc}{\contentsline {section}{\numberline {1}Introduction}{2}}
\citation{Xia2013,Sierra2015,Luo2017,Jiang2018}
\citation{Lucarini2017,Raupach2013,Xia2013,Luo2017}
\citation{Jost2005}
\@writefile{toc}{\contentsline {section}{\numberline {2}Carbon cycle models as dynamical systems}{3}}
\citation{Bolin1983ch4}
\citation{Luo2011}
\citation{Xia2013}
\citation{Luo2017,Jiang2018}
\citation{Xia2013}
\citation{Yan2017,Huang2018}
\citation{Luo2011,Luo2015}
\citation{Luo2011,Luo2017,Jiang2018}
\citation{Wutzler2008,Sierra2015}
\newlabel{GM}{{1}{4}}
\citation{Luo2011,Xia2013,Luo2017,Jiang2018}
\newlabel{NLGM}{{2}{5}}
\newlabel{tab:linearityAutonomy}{{1}{5}}
\citation{Anderson1983,Jacquez1993,Rasmussen2016}
\citation{Weng2011}
\citation{Anderson1983,Jacquez1993}
\citation{Rasmussen2016,Metzler2018,Metzler2018PNAS}
\citation{Rasmussen2016,Sierra2017GCB,Metzler2018PNAS}
\@writefile{toc}{\contentsline {section}{\numberline {3}Compartmental systems}{6}}
\@writefile{toc}{\contentsline {section}{\numberline {4}Autonomous versus non-autonomous systems}{6}}
\citation{Mueller2017}
\citation{Luo2017,Jiang2018}
\newlabel{fig:trajectories}{{1}{7}}
\citation{Luo2017}
\citation{Luo2017}
\citation{Rasmussen2016}
\newlabel{eq:attractor}{{3}{8}}
\@writefile{toc}{\contentsline {section}{\numberline {5}Opportunities and future research}{8}}
\bibdata{cmrefs.bib}
\bibcite{Anderson1983}{{1}{1983}{{\textit  {Anderson}}}{{}}}
\bibcite{Bolin1983ch4}{{2}{1983}{{\textit  {Bolin}}}{{}}}
\bibcite{Bolin1983ch1}{{3}{1983}{{\textit  {Bolin et~al.}}}{{\textit  {Bolin, Keeling, Bacastow, Bj\"orkstr\"om, and Siegenthaler}}}}
\bibcite{Cramer2001}{{4}{2001}{{\textit  {Cramer et~al.}}}{{\textit  {Cramer, Bondeau, Woodward, Prentice, Betts, Brovkin, Cox, Fisher, Foley, Friend, Kucharik, Lomas, Ramankutty, Sitch, Smith, White, and Young-Molling}}}}
\bibcite{Friedlingstein2014}{{5}{2014}{{\textit  {Friedlingstein et~al.}}}{{\textit  {Friedlingstein, Meinshausen, Arora, Jones, Anav, Liddicoat, and Knutti}}}}
\bibcite{Held2014}{{6}{2014}{{\textit  {Held}}}{{}}}
\bibcite{Held2005}{{7}{2005}{{\textit  {Held}}}{{}}}
\bibcite{Huang2018}{{8}{2018}{{\textit  {Huang et~al.}}}{{\textit  {Huang, Lu, Shi, Lawrence, Koven, Xia, Du, Kluzek, and Luo}}}}
\bibcite{Jacquez1993}{{9}{1993}{{\textit  {Jacquez and Simon}}}{{}}}
\bibcite{Jiang2018}{{10}{2018}{{\textit  {Jiang et~al.}}}{{\textit  {Jiang, Shi, Xia, Liang, Lu, Wang, and Luo}}}}
\bibcite{Jones2016}{{11}{2016}{{\textit  {Jones et~al.}}}{{\textit  {Jones, Arora, Friedlingstein, Bopp, Brovkin, Dunne, Graven, Hoffman, Ilyina, John, Jung, Kawamiya, Koven, Pongratz, Raddatz, Randerson, and Zaehle}}}}
\bibcite{Jost2005}{{12}{2005}{{\textit  {Jost}}}{{}}}
\bibcite{Lucarini2017}{{13}{2017}{{\textit  {Lucarini et~al.}}}{{\textit  {Lucarini, Ragone, and Lunkeit}}}}
\bibcite{Luo2011}{{14}{2011}{{\textit  {Luo and Weng}}}{{}}}
\bibcite{Luo2015}{{15}{2015}{{\textit  {Luo et~al.}}}{{\textit  {Luo, Keenan, and Smith}}}}
\bibcite{Luo2017}{{16}{2017}{{\textit  {Luo et~al.}}}{{\textit  {Luo, Shi, Lu, Xia, Liang, Jiang, Wang, Smith, Jiang, Ahlstr\"om, Chen, Hararuk, Hastings, Hoffman, Medlyn, Niu, Rasmussen, Todd-Brown, and Wang}}}}
\bibcite{Metzler2018}{{17}{2018}{{\textit  {Metzler and Sierra}}}{{}}}
\bibcite{Metzler2018PNAS}{{18}{2018}{{\textit  {Metzler et~al.}}}{{\textit  {Metzler, M\"uller, and Sierra}}}}
\bibcite{Meurer2017}{{19}{2017}{{\textit  {Meurer et~al.}}}{{\textit  {Meurer, Smith, Paprocki, {\v C}ert{\'\i }k, Kirpichev, Rocklin, Kumar, Ivanov, Moore, Singh, Rathnayake, Vig, Granger, Muller, Bonazzi, Gupta, Vats, Johansson, Pedregosa, Curry, Terrel, Rou{\v c}ka, Saboo, Fernando, Kulal, Cimrman, and Scopatz}}}}
\bibcite{Mueller2017}{{20}{2017}{{\textit  {M{\"u}ller and Sierra}}}{{}}}
\bibcite{Prentice2007}{{21}{2007}{{\textit  {Prentice et~al.}}}{{\textit  {Prentice, Bondeau, Cramer, Harrison, Hickler, Lucht, Sitch, Smith, and Sykes}}}}
\bibcite{Rasmussen2007}{{22}{2007}{{\textit  {Rasmussen}}}{{}}}
\bibcite{Rasmussen2016}{{23}{2016}{{\textit  {Rasmussen et~al.}}}{{\textit  {Rasmussen, Hastings, Smith, Agusto, Chen-Charpentier, Hoffman, Jiang, Todd-Brown, Wang, Wang, and Luo}}}}
\bibcite{Raupach2013}{{24}{2013}{{\textit  {Raupach}}}{{}}}
\bibcite{Raupach2005}{{25}{2005}{{\textit  {Raupach et~al.}}}{{\textit  {Raupach, Barrett, R., and Kirby}}}}
\bibcite{Sierra2015}{{26}{2015}{{\textit  {Sierra and M{\"u}ller}}}{{}}}
\bibcite{Sierra2017GCB}{{27}{2017}{{\textit  {Sierra et~al.}}}{{\textit  {Sierra, M{\"u}ller, Metzler, Manzoni, and Trumbore}}}}
\bibcite{Strogatz1994}{{28}{1994}{{\textit  {Strogatz}}}{{}}}
\bibcite{Wutzler2008}{{29}{2008}{{\textit  {Wutzler and Reichstein}}}{{}}}
\bibcite{Xia2013}{{30}{2013}{{\textit  {Xia et~al.}}}{{\textit  {Xia, Luo, Wang, and Hararuk}}}}
\bibcite{Yan2017}{{31}{2017}{{\textit  {Yan et~al.}}}{{\textit  {Yan, Zhou, Jiang, and Luo}}}}
