This is BibTeX, Version 0.99d (TeX Live 2016)
Capacity: max_strings=35307, hash_size=35307, hash_prime=30011
The top-level auxiliary file: commentary.aux
The style file: agufull08.bst
Database file #1: cmrefs.bib.bib
Reallocated wiz_functions (elt_size=4) to 6000 items from 3000.
You've used 31 entries,
            3076 wiz_defined-function locations,
            1306 strings with 17099 characters,
and the built_in function-call counts, 32711 in all, are:
= -- 3307
> -- 1463
< -- 19
+ -- 590
- -- 412
* -- 2163
:= -- 3296
add.period$ -- 31
call.type$ -- 31
change.case$ -- 127
chr.to.int$ -- 32
cite$ -- 31
duplicate$ -- 3522
empty$ -- 1842
format.name$ -- 502
if$ -- 6550
int.to.chr$ -- 1
int.to.str$ -- 1
missing$ -- 393
newline$ -- 100
num.names$ -- 128
pop$ -- 1182
preamble$ -- 1
purify$ -- 99
quote$ -- 0
skip$ -- 1853
stack$ -- 0
substring$ -- 1279
swap$ -- 2946
text.length$ -- 5
text.prefix$ -- 0
top$ -- 0
type$ -- 267
warning$ -- 0
while$ -- 166
width$ -- 0
write$ -- 372
