\relax 
\bibstyle{agufull08}
\citation{Bolin1983ch1,Cramer2001,Raupach2005,Prentice2007,Friedlingstein2014}
\citation{Raupach2005,Prentice2007}
\citation{Cramer2001,Friedlingstein2014}
\citation{Held2005}
\citation{Bolin1983ch1,Raupach2005,Held2005,Held2014}
\@writefile{toc}{\contentsline {section}{\numberline {1}Introduction}{2}}
\citation{Xia2013,Sierra2015,Luo2017,Jiang2018}
\citation{Bolin1983ch1,Emanuel1984,Schimel1995,Luo2015}
\citation{Trumbore2006GCB,Luo2015}
\@writefile{toc}{\contentsline {section}{\numberline {2}Carbon cycle models as dynamical systems}{3}}
\citation{Lucarini2017,Raupach2013,Xia2013,Luo2017}
\citation{Jost2005}
\citation{Bolin1983ch4}
\citation{Luo2011}
\citation{Xia2013}
\citation{Luo2017,Jiang2018}
\newlabel{GM}{{1}{4}}
\citation{Xia2013}
\citation{Yan2017,Huang2018}
\citation{Luo2011,Luo2015}
\citation{Luo2011,Luo2017,Jiang2018}
\citation{Wutzler2008,Sierra2015}
\newlabel{NLGM}{{2}{5}}
\citation{Luo2011,Xia2013,Luo2017,Jiang2018}
\citation{Anderson1983,Jacquez1993,Rasmussen2016}
\citation{Weng2011}
\newlabel{tab:linearityAutonomy}{{1}{6}}
\@writefile{toc}{\contentsline {section}{\numberline {3}Compartmental systems}{6}}
\citation{Anderson1983,Jacquez1993}
\citation{Rasmussen2016,Metzler2018,Metzler2018PNAS}
\citation{Rasmussen2016,Sierra2017GCB,Metzler2018PNAS}
\citation{Mueller2017}
\@writefile{toc}{\contentsline {section}{\numberline {4}Autonomous versus non-autonomous systems}{7}}
\citation{Luo2017,Jiang2018}
\citation{Luo2017}
\citation{Luo2017}
\citation{Rasmussen2016}
\citation{Rasmussen2016}
\newlabel{eq:attractor}{{3}{8}}
\@writefile{toc}{\contentsline {section}{\numberline {5}Opportunities and future research}{9}}
\bibdata{cmrefs.bib}
\bibcite{Anderson1983}{{1}{1983}{{\textit  {Anderson}}}{{}}}
\bibcite{Bolin1983ch4}{{2}{1983}{{\textit  {Bolin}}}{{}}}
\bibcite{Bolin1983ch1}{{3}{1983}{{\textit  {Bolin et~al.}}}{{\textit  {Bolin, Keeling, Bacastow, Bj\"orkstr\"om, and Siegenthaler}}}}
\bibcite{Cramer2001}{{4}{2001}{{\textit  {Cramer et~al.}}}{{\textit  {Cramer, Bondeau, Woodward, Prentice, Betts, Brovkin, Cox, Fisher, Foley, Friend, Kucharik, Lomas, Ramankutty, Sitch, Smith, White, and Young-Molling}}}}
\bibcite{Emanuel1984}{{5}{1984}{{\textit  {Emanuel and Killough}}}{{}}}
\bibcite{Friedlingstein2014}{{6}{2014}{{\textit  {Friedlingstein et~al.}}}{{\textit  {Friedlingstein, Meinshausen, Arora, Jones, Anav, Liddicoat, and Knutti}}}}
\bibcite{Held2005}{{7}{2005}{{\textit  {Held}}}{{}}}
\bibcite{Held2014}{{8}{2014}{{\textit  {Held}}}{{}}}
\bibcite{Huang2018}{{9}{2018}{{\textit  {Huang et~al.}}}{{\textit  {Huang, Lu, Shi, Lawrence, Koven, Xia, Du, Kluzek, and Luo}}}}
\bibcite{Jacquez1993}{{10}{1993}{{\textit  {Jacquez and Simon}}}{{}}}
\bibcite{Jiang2018}{{11}{2018}{{\textit  {Jiang et~al.}}}{{\textit  {Jiang, Shi, Xia, Liang, Lu, Wang, and Luo}}}}
\bibcite{Jost2005}{{12}{2005}{{\textit  {Jost}}}{{}}}
\bibcite{Lucarini2017}{{13}{2017}{{\textit  {Lucarini et~al.}}}{{\textit  {Lucarini, Ragone, and Lunkeit}}}}
\bibcite{Luo2011}{{14}{2011}{{\textit  {Luo and Weng}}}{{}}}
\bibcite{Luo2015}{{15}{2015}{{\textit  {Luo et~al.}}}{{\textit  {Luo, Keenan, and Smith}}}}
\bibcite{Luo2017}{{16}{2017}{{\textit  {Luo et~al.}}}{{\textit  {Luo, Shi, Lu, Xia, Liang, Jiang, Wang, Smith, Jiang, Ahlstr\"om, Chen, Hararuk, Hastings, Hoffman, Medlyn, Niu, Rasmussen, Todd-Brown, and Wang}}}}
\bibcite{Metzler2018}{{17}{2018}{{\textit  {Metzler and Sierra}}}{{}}}
\bibcite{Metzler2018PNAS}{{18}{2018}{{\textit  {Metzler et~al.}}}{{\textit  {Metzler, M\"uller, and Sierra}}}}
\bibcite{Mueller2017}{{19}{2017}{{\textit  {M{\"u}ller and Sierra}}}{{}}}
\bibcite{Prentice2007}{{20}{2007}{{\textit  {Prentice et~al.}}}{{\textit  {Prentice, Bondeau, Cramer, Harrison, Hickler, Lucht, Sitch, Smith, and Sykes}}}}
\bibcite{Rasmussen2016}{{21}{2016}{{\textit  {Rasmussen et~al.}}}{{\textit  {Rasmussen, Hastings, Smith, Agusto, Chen-Charpentier, Hoffman, Jiang, Todd-Brown, Wang, Wang, and Luo}}}}
\bibcite{Raupach2013}{{22}{2013}{{\textit  {Raupach}}}{{}}}
\bibcite{Raupach2005}{{23}{2005}{{\textit  {Raupach et~al.}}}{{\textit  {Raupach, Barrett, R., and Kirby}}}}
\bibcite{Schimel1995}{{24}{1995}{{\textit  {Schimel}}}{{}}}
\bibcite{Sierra2015}{{25}{2015}{{\textit  {Sierra and M{\"u}ller}}}{{}}}
\bibcite{Sierra2017GCB}{{26}{2017}{{\textit  {Sierra et~al.}}}{{\textit  {Sierra, M{\"u}ller, Metzler, Manzoni, and Trumbore}}}}
\bibcite{Trumbore2006GCB}{{27}{2006}{{\textit  {Trumbore}}}{{}}}
\bibcite{Weng2011}{{28}{2011}{{\textit  {Weng and Luo}}}{{}}}
\bibcite{Wutzler2008}{{29}{2008}{{\textit  {Wutzler and Reichstein}}}{{}}}
\bibcite{Xia2013}{{30}{2013}{{\textit  {Xia et~al.}}}{{\textit  {Xia, Luo, Wang, and Hararuk}}}}
\bibcite{Yan2017}{{31}{2017}{{\textit  {Yan et~al.}}}{{\textit  {Yan, Zhou, Jiang, and Luo}}}}
\newlabel{fig:trajectories}{{1}{13}}
